{
  "status": "success",
  "meta": {
    "apiVersion": "5.2.0",
    "layer": "main",
    "count": 3,
    "total": 22038,
    "cached": false,
    "cacheExpires": "2025-12-23T15:15:13.005Z",
    "executionTimeMs": 4628
  },
  "links": {
    "self": "?start=0&limit=3",
    "next": "?start=3&limit=3",
    "first": "?start=0&limit=3",
    "last": "?start=22035&limit=3"
  },
  "count": 3,
  "total": 22038,
  "data": [
    {
      "Nº Eletro": "A08802",
      "Nº Parada": 480014794,
      "Identificador do Local": "",
      "Ponto": "ABRIGOS CSP",
      "Área de Trabalho": "Zona Oeste - SP",
      "Endereço": "PRAÇA DOUTOR CIPRIANO DE MORAES, SN",
      "Bairro": "LAPA",
      "Cidade": "SÃO PAULO",
      "Estado": "SP",
      "Praça": "SP",
      "Tipo de Equipamento": "",
      "Tipo de Estabelecimento": "Abrigos São Paulo - Abrigos [Sem Publicidade] [383]",
      "Latitude": -23.537233,
      "Longitude": -46.707552,
      "Status": "Ativo",
      "Data Cadastro": "29/08/2025 19:18:12",
      "Filial": "Matriz",
      "Área de Risco": "-",
      "Modelo de Abrigo": "-",
      "Tipo de Adesivo": "-",
      "Tipo de Piso": "-",
      "Energizado": "-",
      "Luminária": "-",
      "Abrigo Amigo": "-",
      "Wi-Fi": "-",
      "Câmera": "-",
      "Altura do Totem": "-",
      "Painel Digital": "-",
      "Painel Digital - Tipo": "-",
      "Painel Digital - Posição": "-",
      "Painel Estático": "-",
      "Painel Estático - Tipo": "-",
      "Painel Estático - Posição": "-",
      "Link Operações": "https://operacoes.eletromidia.com.br/places/64720",
      "Foto Referência": "",
      "Observações": ""
    },
    {
      "Nº Eletro": "A08997",
      "Nº Parada": 630014684,
      "Identificador do Local": "",
      "Ponto": "ABRIGOS CSP",
      "Área de Trabalho": "Zona Oeste - SP",
      "Endereço": "RUA HENRIQUE SCHAUMANN, SN",
      "Bairro": "PINHEIROS",
      "Cidade": "SÃO PAULO",
      "Estado": "SP",
      "Praça": "SP",
      "Tipo de Equipamento": "",
      "Tipo de Estabelecimento": "Abrigos São Paulo - Abrigos [Sem Publicidade] [383]",
      "Latitude": -23.558059,
      "Longitude": -46.681908,
      "Status": "Ativo",
      "Data Cadastro": "29/08/2025 19:23:53",
      "Filial": "Matriz",
      "Área de Risco": "-",
      "Modelo de Abrigo": "-",
      "Tipo de Adesivo": "-",
      "Tipo de Piso": "-",
      "Energizado": "-",
      "Luminária": "-",
      "Abrigo Amigo": "-",
      "Wi-Fi": "-",
      "Câmera": "-",
      "Altura do Totem": "-",
      "Painel Digital": "-",
      "Painel Digital - Tipo": "-",
      "Painel Digital - Posição": "-",
      "Painel Estático": "-",
      "Painel Estático - Tipo": "-",
      "Painel Estático - Posição": "-",
      "Link Operações": "https://operacoes.eletromidia.com.br/places/64721",
      "Foto Referência": "https://operacoes.eletromidia.com.br/storage/places/photos/a08997.jpeg",
      "Observações": ""
    },
    {
      "Nº Eletro": "A08998",
      "Nº Parada": 3406947,
      "Identificador do Local": "",
      "Ponto": "ABRIGOS CSP",
      "Área de Trabalho": "Zona Sul - SP",
      "Endereço": "RUA GOMES DE CARVALHO, 1666",
      "Bairro": "VILA OLIMPIA",
      "Cidade": "SÃO PAULO",
      "Estado": "SP",
      "Praça": "SP",
      "Tipo de Equipamento": "",
      "Tipo de Estabelecimento": "Abrigos São Paulo - Abrigos [Sem Publicidade] [383]",
      "Latitude": -23.595293,
      "Longitude": -46.688628,
      "Status": "Ativo",
      "Data Cadastro": "29/08/2025 19:30:35",
      "Filial": "Sul",
      "Área de Risco": "-",
      "Modelo de Abrigo": "-",
      "Tipo de Adesivo": "-",
      "Tipo de Piso": "-",
      "Energizado": "-",
      "Luminária": "-",
      "Abrigo Amigo": "-",
      "Wi-Fi": "-",
      "Câmera": "-",
      "Altura do Totem": "-",
      "Painel Digital": "-",
      "Painel Digital - Tipo": "-",
      "Painel Digital - Posição": "-",
      "Painel Estático": "-",
      "Painel Estático - Tipo": "-",
      "Painel Estático - Posição": "-",
      "Link Operações": "https://operacoes.eletromidia.com.br/places/64722",
      "Foto Referência": "https://operacoes.eletromidia.com.br/storage/places/photos/a08998.jpeg",
      "Observações": ""
    }
  ]
}
