{
  "status": "success",
  "meta": {
    "apiVersion": "5.2.0",
    "layer": "main",
    "count": 5,
    "total": 22038,
    "cached": false,
    "cacheExpires": "2025-12-23T15:15:39.999Z",
    "executionTimeMs": 1386
  },
  "links": {
    "self": "?start=10&limit=5",
    "next": "?start=15&limit=5",
    "prev": "?start=5&limit=5",
    "first": "?start=0&limit=5",
    "last": "?start=22035&limit=5"
  },
  "count": 5,
  "total": 22038,
  "data": [
    {
      "Nº Eletro": "A02963",
      "Nº Parada": 260015039,
      "Identificador do Local": "",
      "Ponto": "ABRIGOS CSP",
      "Área de Trabalho": "Zona Oeste - SP",
      "Endereço": "RUA DA CONSOLACAO, 2483",
      "Bairro": "JARDIM PAULISTA",
      "Cidade": "SÃO PAULO",
      "Estado": "SP",
      "Praça": "SP",
      "Tipo de Equipamento": "",
      "Tipo de Estabelecimento": "Abrigos São Paulo - Abrigos [Sem Publicidade] [383]",
      "Latitude": -23.555883,
      "Longitude": -46.66306,
      "Status": "Ativo",
      "Data Cadastro": "22/09/2025 17:26:13",
      "Filial": "Matriz",
      "Área de Risco": "-",
      "Modelo de Abrigo": "CORBUCCI",
      "Tipo de Adesivo": "-",
      "Tipo de Piso": "-",
      "Energizado": "Sim",
      "Luminária": "-",
      "Abrigo Amigo": "-",
      "Wi-Fi": "-",
      "Câmera": "-",
      "Altura do Totem": "-",
      "Painel Digital": "-",
      "Painel Digital - Tipo": "-",
      "Painel Digital - Posição": "-",
      "Painel Estático": "-",
      "Painel Estático - Tipo": "-",
      "Painel Estático - Posição": "-",
      "Link Operações": "https://operacoes.eletromidia.com.br/places/65639",
      "Foto Referência": "",
      "Observações": ""
    },
    {
      "Nº Eletro": "A02964",
      "Nº Parada": 260016855,
      "Identificador do Local": "",
      "Ponto": "ABRIGOS CSP",
      "Área de Trabalho": "Centro - SP",
      "Endereço": "RUA DA CONSOLACAO, 2308",
      "Bairro": "CONSOLACAO",
      "Cidade": "SÃO PAULO",
      "Estado": "SP",
      "Praça": "SP",
      "Tipo de Equipamento": "",
      "Tipo de Estabelecimento": "Abrigos São Paulo - Abrigos [Sem Publicidade] [383]",
      "Latitude": -23.555176,
      "Longitude": -46.66237,
      "Status": "Ativo",
      "Data Cadastro": "22/09/2025 17:26:13",
      "Filial": "Matriz",
      "Área de Risco": "-",
      "Modelo de Abrigo": "CORBUCCI",
      "Tipo de Adesivo": "-",
      "Tipo de Piso": "-",
      "Energizado": "Sim",
      "Luminária": "-",
      "Abrigo Amigo": "-",
      "Wi-Fi": "-",
      "Câmera": "-",
      "Altura do Totem": "-",
      "Painel Digital": "-",
      "Painel Digital - Tipo": "-",
      "Painel Digital - Posição": "-",
      "Painel Estático": "-",
      "Painel Estático - Tipo": "-",
      "Painel Estático - Posição": "-",
      "Link Operações": "https://operacoes.eletromidia.com.br/places/65640",
      "Foto Referência": "",
      "Observações": ""
    },
    {
      "Nº Eletro": "A02965",
      "Nº Parada": "230009828-1",
      "Identificador do Local": "",
      "Ponto": "ABRIGOS CSP",
      "Área de Trabalho": "Zona Sul - SP",
      "Endereço": "AVENIDA SENADOR TEOTONIO VILELA (E.T. RIO BONITO), 1922",
      "Bairro": "CIDADE DUTRA",
      "Cidade": "SÃO PAULO",
      "Estado": "SP",
      "Praça": "SP",
      "Tipo de Equipamento": "",
      "Tipo de Estabelecimento": "Abrigos São Paulo - Abrigos [Sem Publicidade] [383]",
      "Latitude": -23.71846,
      "Longitude": -46.698969,
      "Status": "Ativo",
      "Data Cadastro": "22/09/2025 17:26:13",
      "Filial": "Matriz",
      "Área de Risco": "-",
      "Modelo de Abrigo": "CORBUCCI",
      "Tipo de Adesivo": "-",
      "Tipo de Piso": "-",
      "Energizado": "Sim",
      "Luminária": "-",
      "Abrigo Amigo": "-",
      "Wi-Fi": "-",
      "Câmera": "-",
      "Altura do Totem": "-",
      "Painel Digital": "-",
      "Painel Digital - Tipo": "-",
      "Painel Digital - Posição": "-",
      "Painel Estático": "-",
      "Painel Estático - Tipo": "-",
      "Painel Estático - Posição": "-",
      "Link Operações": "https://operacoes.eletromidia.com.br/places/65641",
      "Foto Referência": "",
      "Observações": ""
    },
    {
      "Nº Eletro": "A02966",
      "Nº Parada": "230009828-2",
      "Identificador do Local": "",
      "Ponto": "ABRIGOS CSP",
      "Área de Trabalho": "Zona Sul - SP",
      "Endereço": "AVENIDA SENADOR TEOTONIO VILELA (E.T. RIO BONITO), 1922",
      "Bairro": "CIDADE DUTRA",
      "Cidade": "SÃO PAULO",
      "Estado": "SP",
      "Praça": "SP",
      "Tipo de Equipamento": "",
      "Tipo de Estabelecimento": "Abrigos São Paulo - Abrigos [Sem Publicidade] [383]",
      "Latitude": -23.71846,
      "Longitude": -46.698969,
      "Status": "Ativo",
      "Data Cadastro": "22/09/2025 17:26:13",
      "Filial": "Matriz",
      "Área de Risco": "-",
      "Modelo de Abrigo": "CORBUCCI",
      "Tipo de Adesivo": "-",
      "Tipo de Piso": "-",
      "Energizado": "Sim",
      "Luminária": "-",
      "Abrigo Amigo": "-",
      "Wi-Fi": "-",
      "Câmera": "-",
      "Altura do Totem": "-",
      "Painel Digital": "-",
      "Painel Digital - Tipo": "-",
      "Painel Digital - Posição": "-",
      "Painel Estático": "-",
      "Painel Estático - Tipo": "-",
      "Painel Estático - Posição": "-",
      "Link Operações": "https://operacoes.eletromidia.com.br/places/65642",
      "Foto Referência": "",
      "Observações": ""
    },
    {
      "Nº Eletro": "A02967",
      "Nº Parada": "230009831-1",
      "Identificador do Local": "",
      "Ponto": "ABRIGOS CSP",
      "Área de Trabalho": "Zona Sul - SP",
      "Endereço": "AVENIDA SENADOR TEOTONIO VILELA (E.T. RIO BONITO), 1922",
      "Bairro": "CIDADE DUTRA",
      "Cidade": "SÃO PAULO",
      "Estado": "SP",
      "Praça": "SP",
      "Tipo de Equipamento": "",
      "Tipo de Estabelecimento": "Abrigos São Paulo - Abrigos [Sem Publicidade] [383]",
      "Latitude": -23.718269,
      "Longitude": -46.698787,
      "Status": "Ativo",
      "Data Cadastro": "22/09/2025 17:26:13",
      "Filial": "Matriz",
      "Área de Risco": "-",
      "Modelo de Abrigo": "CORBUCCI",
      "Tipo de Adesivo": "-",
      "Tipo de Piso": "-",
      "Energizado": "Sim",
      "Luminária": "-",
      "Abrigo Amigo": "-",
      "Wi-Fi": "-",
      "Câmera": "-",
      "Altura do Totem": "-",
      "Painel Digital": "-",
      "Painel Digital - Tipo": "-",
      "Painel Digital - Posição": "-",
      "Painel Estático": "-",
      "Painel Estático - Tipo": "-",
      "Painel Estático - Posição": "-",
      "Link Operações": "https://operacoes.eletromidia.com.br/places/65643",
      "Foto Referência": "",
      "Observações": ""
    }
  ]
}
